[
  {"pk": 1, "model": "resources.license", "fields": {"code": "PD", "name": "Public Domain", "nc": false, "nd": false, "at": false, "sa": false, "replaced": null, 
       "selectable": true, "filterable": true, 
       "link": "http://en.wikipedia.org/wiki/Public_Domain",
       "banner": "license/banner/pd.svg",
       "icon": "license/icon/pd.svg"}},
  {"pk": 2, "model": "resources.license", "fields": {"code": "CC-0", "name": "CC-0 Public Domain Declaration", "nc": false, "nd": false, "at": false, "sa": false, "replaced": null, 
       "selectable": true, "filterable": true, 
       "link": "https://creativecommons.org/publicdomain/zero/1.0/",
       "banner": "license/banner/cc0.svg",
       "icon": "license/icon/cc0.svg"}},
  {"pk": 3, "model": "resources.license", "fields": {"code": "CC-BY", "name": "Creative Commons Attribution Only 3.0", "nc": false, "nd": false, "at": true, "sa": false, "replaced": null,
       "selectable": true, "filterable": true, 
       "link": "https://creativecommons.org/licenses/by/3.0/",
       "banner": "license/banner/cc-by.svg",
       "icon": "license/icon/cc-by.svg"}},
  {"pk": 4, "model": "resources.license", "fields": {"code": "CC-BY-SA", "name": "Creative Commons Attribution Share-Alike 3.0", "nc": false, "nd": false, "at": true, "sa": true, "replaced": null,
       "selectable": true, "filterable": true, 
       "link": "https://creativecommons.org/licenses/by-sa/3.0/",
       "banner": "license/banner/cc-by-sa.svg",
       "icon": "license/icon/cc-by-sa.svg"}},
  {"pk": 5, "model": "resources.license", "fields": {"code": "CC-BY-NC", "name": "Creative Commons Attribution Non-Commercial 3.0", "nc": true, "nd": false, "at": false, "sa": false, "replaced": null,
       "selectable": true, "filterable": true, 
       "link": "https://creativecommons.org/licenses/by-nc/3.0/",
       "banner": "license/banner/cc-by-nc.svg",
       "icon": "license/icon/cc-by-nc.svg"}},
  {"pk": 6, "model": "resources.license", "fields": {"code": "CC-BY-ND", "name": "Creative Commons Attribution Non-Derivative 3.0", "nc": false, "nd": true, "at": true, "sa": false, "replaced": null,
       "selectable": true, "filterable": true, 
       "link": "https://creativecommons.org/licenses/by-nd/3.0/",
       "banner": "license/banner/cc-by-nd.svg",
       "icon": "license/icon/cc-by-nd.svg"}},
  {"pk": 7, "model": "resources.license", "fields": {"code": "CC-BY-NC-SA", "name": "Creative Commons Attribution Non-Commercial Share-Alike 3.0", "nc": true, "nd": false, "at": true, "sa": true, "replaced": null,
       "selectable": true, "filterable": true, 
       "link": "https://creativecommons.org/licenses/by-nc-sa/3.0/",
       "banner": "license/banner/cc-by-nc-sa.svg",
       "icon": "license/icon/cc-by-nc-sa.svg"}},
  {"pk": 8, "model": "resources.license", "fields": {"code": "GPLv2", "name": "General Public License v2", "nc": false, "nd": false, "at": true, "sa": true, "replaced": 9,
       "selectable": true, "filterable": true, 
       "link": "http://www.gnu.org/licenses/gpl-2.0.html",
       "banner": "license/banner/gplv2.svg",
       "icon": "license/icon/gplv2.svg"}},
  {"pk": 9, "model": "resources.license", "fields": {"code": "GPLv3", "name": "General Public License v3", "nc": false, "nd": false, "at": true, "sa": true, "replaced": null,
       "selectable": true, "filterable": true, 
       "link": "http://www.gnu.org/licenses/gpl-3.0.html",
       "banner": "license/banner/gplv3.svg",
       "icon": "license/icon/gplv3.svg"}},
  {"pk": 10, "model": "resources.license", "fields": {"code": "LGPLv2", "name": "Lesser General Public License v2", "nc": false, "nd": false, "at": true, "sa": true,  "replaced": 11,
       "selectable": true, "filterable": true, 
       "link": "http://www.gnu.org/licenses/lgpl-2.0.html",
       "banner": "license/banner/lgpl2.svg",
       "icon": "license/icon/lgpl2.svg"}},
  {"pk": 11, "model": "resources.license", "fields": {"code": "LGPLv3", "name": "Lesser General Public License v3", "nc": false, "nd": false, "at": true, "sa": true,  "replaced": null,
       "selectable": true, "filterable": true, 
       "link": "http://www.gnu.org/licenses/lgpl-3.0.html",
       "banner": "license/banner/lgpl3.svg",
       "icon": "license/icon/lgpl3.svg"}},
  {"pk": 12, "model": "resources.license", "fields": {"code": "AGPLv3", "name": "Affero General Public License v3", "nc": false, "nd": false, "at": true, "sa": true,  "replaced": null,
       "selectable": true, "filterable": true, 
       "link": "http://www.gnu.org/licenses/agpl-3.0.html",
       "banner": "license/banner/agpl3.svg",
       "icon": "license/icon/agpl3.svg"}},
  {"pk": 14, "model": "resources.license", "fields": {"code": "(C)", "name": "All Rights Reserved", "nc": true, "nd": true, "at": false, "sa": false, "replaced": null,
       "selectable": true, "filterable": true, 
       "link": "http://en.wikipedia.org/wiki/All_rights_reserved",
       "banner": "license/banner/c.svg",
       "icon": "license/icon/c.svg"}},
{
  "model": "resources.license",
  "pk": 15,
  "fields": {
    "name": "MIT License",
    "code": "MIT",
    "link": "https://opensource.org/licenses/MIT",
    "banner": "license/banner/mit.svg",
    "icon": "license/icon/mit.svg",
    "at": true,
    "sa": false,
    "nc": false,
    "nd": false,
    "selectable": true,
    "filterable": true,
    "replaced": null
  }
},
{
  "model": "resources.license",
  "pk": 16,
  "fields": {
    "name": "Apache 2.0",
    "code": "ASL",
    "link": "http://www.apache.org/licenses/LICENSE-2.0.html",
    "banner": "license/banner/asl.svg",
    "icon": "license/icon/asl.svg",
    "at": true,
    "sa": false,
    "nc": false,
    "nd": false,
    "selectable": true,
    "filterable": true,
    "replaced": null
  }
},
{
  "model": "resources.license",
  "pk": 18,
  "fields": {
    "name": "SIL Open Font Licence",
    "code": "OFL",
    "link": "http://scripts.sil.org/OFL",
    "banner": "license/banner/ofl.svg",
    "icon": "license/icon/ofl.svg",
    "at": true,
    "sa": true,
    "nc": false,
    "nd": false,
    "selectable": true,
    "filterable": false,
    "replaced": null
  }
},
{
  "model": "resources.license",
  "pk": 17,
  "fields": {
    "name": "New BSD License",
    "code": "nbsd",
    "link": "https://opensource.org/licenses/BSD-3-Clause",
    "banner": "license/banner/nbsd.svg",
    "icon": "license/icon/nbsd.svg",
    "at": true,
    "sa": false,
    "nc": false,
    "nd": false,
    "selectable": true,
    "filterable": true,
    "replaced": null
  }
},
{
  "model": "resources.license",
  "pk": 20,
  "fields": {
    "name": "Creative Commons Attribution Share-Alike 4.0",
    "code": "CC-BY-SA 4.0",
    "link": "https://creativecommons.org/licenses/by-sa/4.0/",
    "banner": "license/banner/cc-by-sa.svg",
    "icon": "license/icon/cc-by-sa.svg",
    "at": true,
    "sa": true,
    "nc": false,
    "nd": false,
    "selectable": true,
    "filterable": true,
    "replaced": null
  }
}
]
